{
  "version": "14.0.0",
  "vulnerabilities": [
    {
      "id": "623e88eb193fd2610c728abaa68a5760f8f0a62ac74a57357366db799c725b1f",
      "category": "dependency_scanning",
      "name": "SQL Injection",
      "message": "SQL Injection in Django",
      "description": "Due to an error in shallow key transformation, key and index lookups for `django.contrib.postgres.fields.JSONField`, and key lookups for `django.contrib.postgres.fields.HStoreField`, were subject to SQL injection. This could, for example, be exploited via crafted use of `OR 1=1` in a key or index name to return all records, using a suitably crafted dictionary, with dictionary expansion, as the `**kwargs` passed to the `QuerySet.filter()` function.",
      "cve": "Pipfile:Django:gemnasium:1c876f07-617f-4ba9-8ea3-a871d14bcde2",
      "severity": "Critical",
      "solution": "Upgrade to versions 1.11.23, 2.1.11, 2.2.4 or above.",
      "scanner": {
        "id": "gemnasium",
        "name": "Gemnasium"
      },
      "location": {
        "file": "Pipfile",
        "dependency": {
          "package": {
            "name": "Django"
          },
          "version": "1.11.3"
        }
      },
      "identifiers": [
        {
          "type": "gemnasium",
          "name": "Gemnasium-1c876f07-617f-4ba9-8ea3-a871d14bcde2",
          "value": "1c876f07-617f-4ba9-8ea3-a871d14bcde2",
          "url": "https://gitlab.com/gitlab-org/security-products/gemnasium-db/-/blob/v1.2.142/pypi/Django/CVE-2019-14234.yml"
        },
        {
          "type": "cve",
          "name": "CVE-2019-14234",
          "value": "CVE-2019-14234",
          "url": "https://cve.mitre.org/cgi-bin/cvename.cgi?name=CVE-2019-14234"
        }
      ],
      "links": [
        {
          "url": "https://docs.djangoproject.com/en/dev/releases/security/"
        },
        {
          "url": "https://nvd.nist.gov/vuln/detail/CVE-2019-14234"
        },
        {
          "url": "https://www.djangoproject.com/weblog/2019/aug/01/security-releases/"
        }
      ]
    },
    {
      "id": "bb872b90213ebd61be349f26ff67d8090913278e2d0335749338e936220d7b6d",
      "category": "dependency_scanning",
      "name": "Weak Password Recovery Mechanism for Forgotten Password",
      "message": "Weak Password Recovery Mechanism for Forgotten Password in Django",
      "description": "Django allows account takeover. A suitably crafted email address (that is equal to an existing user's email address after case transformation of Unicode characters) would allow an attacker to be sent a password reset token for the matched user account. (One mitigation in the new releases is to send password reset tokens only to the registered user email address.)",
      "cve": "Pipfile:Django:gemnasium:e1db52dc-7f84-4281-8b82-6a64da18a721",
      "severity": "Critical",
      "solution": "Upgrade to versions 1.11.27, 2.2.9, 3.0.1 or above.",
      "scanner": {
        "id": "gemnasium",
        "name": "Gemnasium"
      },
      "location": {
        "file": "Pipfile",
        "dependency": {
          "package": {
            "name": "Django"
          },
          "version": "1.11.3"
        }
      },
      "identifiers": [
        {
          "type": "gemnasium",
          "name": "Gemnasium-e1db52dc-7f84-4281-8b82-6a64da18a721",
          "value": "e1db52dc-7f84-4281-8b82-6a64da18a721",
          "url": "https://gitlab.com/gitlab-org/security-products/gemnasium-db/-/blob/v1.2.142/pypi/Django/CVE-2019-19844.yml"
        },
        {
          "type": "cve",
          "name": "CVE-2019-19844",
          "value": "CVE-2019-19844",
          "url": "https://cve.mitre.org/cgi-bin/cvename.cgi?name=CVE-2019-19844"
        }
      ],
      "links": [
        {
          "url": "https://docs.djangoproject.com/en/dev/releases/security/"
        },
        {
          "url": "https://nvd.nist.gov/vuln/detail/CVE-2019-19844"
        },
        {
          "url": "https://www.djangoproject.com/weblog/2019/dec/18/security-releases/"
        }
      ]
    },
    {
      "id": "11d84b938faccb26e6626fa1d9fd5fd5cdd3fa348f3de23ca2a26d43fd795fdb",
      "category": "dependency_scanning",
      "name": "SQL Injection",
      "message": "SQL Injection in Django",
      "description": "Django allows SQL Injection if untrusted data is used as a delimiter (e.g., in Django applications that offer downloads of data as a series of rows with a user-specified column delimiter). By passing a suitably crafted delimiter to a `contrib.postgres.aggregates.StringAgg` instance, it was possible to break escaping and inject malicious SQL.",
      "cve": "Pipfile:Django:gemnasium:ea400310-29db-4c48-8236-42d462d1de1c",
      "severity": "Critical",
      "solution": "Upgrade to versions 1.11.28, 2.2.10, 3.0.3 or above.",
      "scanner": {
        "id": "gemnasium",
        "name": "Gemnasium"
      },
      "location": {
        "file": "Pipfile",
        "dependency": {
          "package": {
            "name": "Django"
          },
          "version": "1.11.3"
        }
      },
      "identifiers": [
        {
          "type": "gemnasium",
          "name": "Gemnasium-ea400310-29db-4c48-8236-42d462d1de1c",
          "value": "ea400310-29db-4c48-8236-42d462d1de1c",
          "url": "https://gitlab.com/gitlab-org/security-products/gemnasium-db/-/blob/v1.2.142/pypi/Django/CVE-2020-7471.yml"
        },
        {
          "type": "cve",
          "name": "CVE-2020-7471",
          "value": "CVE-2020-7471",
          "url": "https://cve.mitre.org/cgi-bin/cvename.cgi?name=CVE-2020-7471"
        }
      ],
      "links": [
        {
          "url": "https://docs.djangoproject.com/en/3.0/releases/security/"
        },
        {
          "url": "https://nvd.nist.gov/vuln/detail/CVE-2020-7471"
        },
        {
          "url": "https://www.djangoproject.com/weblog/2020/feb/03/security-releases/"
        }
      ]
    },
    {
      "id": "5641690c9dfc6c7a49d70e7b3acb5dbaa2a8d1341d4bd5ac23b3eeb274a9cd1c",
      "category": "dependency_scanning",
      "name": "Information exposure in HTTP headers",
      "message": "Information exposure in HTTP headers in requests",
      "description": "The Requests package for Python sends an HTTP Authorization header to an HTTP URI upon receiving a same-hostname https-to-http redirect, which makes it easier for remote attackers to discover credentials by sniffing the network.",
      "cve": "Pipfile:requests:gemnasium:2d0dd26c-c781-40e1-b126-7f20b21de048",
      "severity": "Critical",
      "solution": "Upgrade to version 2.20.0 or above.",
      "scanner": {
        "id": "gemnasium",
        "name": "Gemnasium"
      },
      "location": {
        "file": "Pipfile",
        "dependency": {
          "package": {
            "name": "requests"
          },
          "version": "2.5.3"
        }
      },
      "identifiers": [
        {
          "type": "gemnasium",
          "name": "Gemnasium-2d0dd26c-c781-40e1-b126-7f20b21de048",
          "value": "2d0dd26c-c781-40e1-b126-7f20b21de048",
          "url": "https://gitlab.com/gitlab-org/security-products/gemnasium-db/-/blob/v1.2.142/pypi/requests/CVE-2018-18074.yml"
        },
        {
          "type": "cve",
          "name": "CVE-2018-18074",
          "value": "CVE-2018-18074",
          "url": "https://cve.mitre.org/cgi-bin/cvename.cgi?name=CVE-2018-18074"
        }
      ],
      "links": [
        {
          "url": "http://cwe.mitre.org/data/definitions/255.html"
        },
        {
          "url": "http://docs.python-requests.org/en/master/community/updates/#release-and-version-history"
        },
        {
          "url": "https://bugs.debian.org/910766"
        },
        {
          "url": "https://github.com/requests/requests/commit/c45d7c49ea75133e52ab22a8e9e13173938e36ff"
        },
        {
          "url": "https://github.com/requests/requests/issues/4716"
        },
        {
          "url": "https://github.com/requests/requests/pull/4718"
        },
        {
          "url": "https://nvd.nist.gov/vuln/detail/CVE-2018-18074"
        },
        {
          "url": "https://usn.ubuntu.com/3790-1/"
        },
        {
          "url": "https://usn.ubuntu.com/3790-2/"
        }
      ]
    },
    {
      "id": "5133d80c6900789603356cddfd2158797ae3144b916806c57aa01ea3ef62a8f3",
      "category": "dependency_scanning",
      "name": "Improper Input Validation",
      "message": "Improper Input Validation in Django",
      "description": "A call to the methods `chars()` or `words() in `django.utils.text.Truncator` with the argument `html=True` evaluates certain inputs extremely slowly due to a catastrophic backtracking vulnerability in a regular expression. The `chars()` and `words()` methods are used to implement the `truncatechars_html` and `truncatewords_html` template filters, which were thus vulnerable.",
      "cve": "Pipfile:Django:gemnasium:3fee86b0-d8c1-4c65-9242-7607562190ae",
      "severity": "High",
      "solution": "Upgrade to versions 1.11.23, 2.1.11, 2.2.4 or above.",
      "scanner": {
        "id": "gemnasium",
        "name": "Gemnasium"
      },
      "location": {
        "file": "Pipfile",
        "dependency": {
          "package": {
            "name": "Django"
          },
          "version": "1.11.3"
        }
      },
      "identifiers": [
        {
          "type": "gemnasium",
          "name": "Gemnasium-3fee86b0-d8c1-4c65-9242-7607562190ae",
          "value": "3fee86b0-d8c1-4c65-9242-7607562190ae",
          "url": "https://gitlab.com/gitlab-org/security-products/gemnasium-db/-/blob/v1.2.142/pypi/Django/CVE-2019-14232.yml"
        },
        {
          "type": "cve",
          "name": "CVE-2019-14232",
          "value": "CVE-2019-14232",
          "url": "https://cve.mitre.org/cgi-bin/cvename.cgi?name=CVE-2019-14232"
        }
      ],
      "links": [
        {
          "url": "https://docs.djangoproject.com/en/dev/releases/security/"
        },
        {
          "url": "https://nvd.nist.gov/vuln/detail/CVE-2019-14232"
        },
        {
          "url": "https://www.djangoproject.com/weblog/2019/aug/01/security-releases/"
        }
      ]
    },
    {
      "id": "0fd8407b90fb9fe747d7d88734fb85a122c4cbb4ea9fa051aa4ed7689468fe73",
      "category": "dependency_scanning",
      "name": "Denial-of-service",
      "message": "Denial-of-service in Django",
      "description": "If passed certain inputs, `django.utils.encoding.uri_to_iri` could lead to significant memory usage due to a recursion when repercent-encoding invalid UTF-8 octet sequences.",
      "cve": "Pipfile:Django:gemnasium:49afe3f9-e7ab-4d52-ad25-6e04bfdd670d",
      "severity": "High",
      "solution": "Upgrade to versions 1.11.23, 2.1.11, 2.2.4 or above.",
      "scanner": {
        "id": "gemnasium",
        "name": "Gemnasium"
      },
      "location": {
        "file": "Pipfile",
        "dependency": {
          "package": {
            "name": "Django"
          },
          "version": "1.11.3"
        }
      },
      "identifiers": [
        {
          "type": "gemnasium",
          "name": "Gemnasium-49afe3f9-e7ab-4d52-ad25-6e04bfdd670d",
          "value": "49afe3f9-e7ab-4d52-ad25-6e04bfdd670d",
          "url": "https://gitlab.com/gitlab-org/security-products/gemnasium-db/-/blob/v1.2.142/pypi/Django/CVE-2019-14235.yml"
        },
        {
          "type": "cve",
          "name": "CVE-2019-14235",
          "value": "CVE-2019-14235",
          "url": "https://cve.mitre.org/cgi-bin/cvename.cgi?name=CVE-2019-14235"
        }
      ],
      "links": [
        {
          "url": "https://docs.djangoproject.com/en/dev/releases/security/"
        },
        {
          "url": "https://nvd.nist.gov/vuln/detail/CVE-2019-14235"
        },
        {
          "url": "https://www.djangoproject.com/weblog/2019/aug/01/security-releases/"
        }
      ]
    },
    {
      "id": "9a8dd7f7a6845d0503dbb136a076344678e22de1687356da955a4257fa2f2744",
      "category": "dependency_scanning",
      "name": "Improper Input Validation",
      "message": "Improper Input Validation in Django",
      "description": "Due to the behaviour of the underlying HTMLParser, `django.utils.html.strip_tags` would be extremely slow to evaluate certain inputs containing large sequences of nested incomplete HTML entities.",
      "cve": "Pipfile:Django:gemnasium:4be2dbd8-301a-48cd-8ffd-db2edf367ac4",
      "severity": "High",
      "solution": "Upgrade to versions 1.11.23, 2.1.11, 2.2.4 or above.",
      "scanner": {
        "id": "gemnasium",
        "name": "Gemnasium"
      },
      "location": {
        "file": "Pipfile",
        "dependency": {
          "package": {
            "name": "Django"
          },
          "version": "1.11.3"
        }
      },
      "identifiers": [
        {
          "type": "gemnasium",
          "name": "Gemnasium-4be2dbd8-301a-48cd-8ffd-db2edf367ac4",
          "value": "4be2dbd8-301a-48cd-8ffd-db2edf367ac4",
          "url": "https://gitlab.com/gitlab-org/security-products/gemnasium-db/-/blob/v1.2.142/pypi/Django/CVE-2019-14233.yml"
        },
        {
          "type": "cve",
          "name": "CVE-2019-14233",
          "value": "CVE-2019-14233",
          "url": "https://cve.mitre.org/cgi-bin/cvename.cgi?name=CVE-2019-14233"
        }
      ],
      "links": [
        {
          "url": "https://docs.djangoproject.com/en/dev/releases/security/"
        },
        {
          "url": "https://nvd.nist.gov/vuln/detail/CVE-2019-14233"
        },
        {
          "url": "https://www.djangoproject.com/weblog/2019/aug/01/security-releases/"
        }
      ]
    },
    {
      "id": "cc2ef1d11c378f5a8770e7dfca6d5aed11945079eead6e1e7d503f8c1002ff11",
      "category": "dependency_scanning",
      "name": "SQL Injection",
      "message": "SQL Injection in Django",
      "description": "Django allows SQL Injection if untrusted data is used as a tolerance parameter in GIS functions and aggregates on Oracle. By passing a suitably crafted tolerance to GIS functions and aggregates on Oracle, it was possible to break escaping and inject malicious SQL.",
      "cve": "Pipfile:Django:gemnasium:5295f830-9e63-4a53-a81c-c6a7745e7aa8",
      "severity": "High",
      "solution": "Upgrade to versions 1.11.29, 2.2.11, 3.0.4 or above.",
      "scanner": {
        "id": "gemnasium",
        "name": "Gemnasium"
      },
      "location": {
        "file": "Pipfile",
        "dependency": {
          "package": {
            "name": "Django"
          },
          "version": "1.11.3"
        }
      },
      "identifiers": [
        {
          "type": "gemnasium",
          "name": "Gemnasium-5295f830-9e63-4a53-a81c-c6a7745e7aa8",
          "value": "5295f830-9e63-4a53-a81c-c6a7745e7aa8",
          "url": "https://gitlab.com/gitlab-org/security-products/gemnasium-db/-/blob/v1.2.142/pypi/Django/CVE-2020-9402.yml"
        },
        {
          "type": "cve",
          "name": "CVE-2020-9402",
          "value": "CVE-2020-9402",
          "url": "https://cve.mitre.org/cgi-bin/cvename.cgi?name=CVE-2020-9402"
        }
      ],
      "links": [
        {
          "url": "https://docs.djangoproject.com/en/3.0/releases/security/"
        },
        {
          "url": "https://nvd.nist.gov/vuln/detail/CVE-2020-9402"
        },
        {
          "url": "https://www.djangoproject.com/weblog/2020/mar/04/security-releases/"
        }
      ]
    },
    {
      "id": "999328ed3da7ccd31f502cb1f302c0a5a5f4376577175d9f5fe8cd05cdf9498f",
      "category": "dependency_scanning",
      "name": "Uncontrolled Memory Consumption",
      "message": "Uncontrolled Memory Consumption in Django",
      "description": "Django allows Uncontrolled Memory Consumption via a malicious attacker-supplied value to the `django.utils.numberformat.format()` function.",
      "cve": "Pipfile:Django:gemnasium:aa6b0729-ecca-4f48-8ea0-b364044c09cc",
      "severity": "High",
      "solution": "Upgrade to versions 1.11.20, 2.0.12, 2.1.7 or above.",
      "scanner": {
        "id": "gemnasium",
        "name": "Gemnasium"
      },
      "location": {
        "file": "Pipfile",
        "dependency": {
          "package": {
            "name": "Django"
          },
          "version": "1.11.3"
        }
      },
      "identifiers": [
        {
          "type": "gemnasium",
          "name": "Gemnasium-aa6b0729-ecca-4f48-8ea0-b364044c09cc",
          "value": "aa6b0729-ecca-4f48-8ea0-b364044c09cc",
          "url": "https://gitlab.com/gitlab-org/security-products/gemnasium-db/-/blob/v1.2.142/pypi/Django/CVE-2019-6975.yml"
        },
        {
          "type": "cve",
          "name": "CVE-2019-6975",
          "value": "CVE-2019-6975",
          "url": "https://cve.mitre.org/cgi-bin/cvename.cgi?name=CVE-2019-6975"
        }
      ],
      "links": [
        {
          "url": "http://www.securityfocus.com/bid/106964"
        },
        {
          "url": "https://cve.mitre.org/cgi-bin/cvename.cgi?name=CVE-2019-6975"
        },
        {
          "url": "https://cwe.mitre.org/data/definitions/789.html"
        },
        {
          "url": "https://docs.djangoproject.com/en/dev/releases/security/"
        },
        {
          "url": "https://groups.google.com/forum/#!topic/django-announce/WTwEAprR0IQ"
        },
        {
          "url": "https://lists.fedoraproject.org/archives/list/package-announce@lists.fedoraproject.org/message/66WMXHGBXD7GSM3PEXVCMCAGLMQYHZCU/"
        },
        {
          "url": "https://lists.fedoraproject.org/archives/list/package-announce@lists.fedoraproject.org/message/HVXDOVCXLD74SHR2BENGCE2OOYYYWJHZ/"
        },
        {
          "url": "https://nvd.nist.gov/vuln/detail/CVE-2019-6975"
        },
        {
          "url": "https://usn.ubuntu.com/3890-1/"
        },
        {
          "url": "https://www.djangoproject.com/weblog/2019/feb/11/security-releases/"
        },
        {
          "url": "https://www.openwall.com/lists/oss-security/2019/02/11/1"
        }
      ]
    },
    {
      "id": "72c960dda0af5695c700ca92947f53679f02720d2994bd38c3e6ec5b10567ca0",
      "category": "dependency_scanning",
      "name": "Cross-site Scripting",
      "message": "Cross-site Scripting in Django",
      "description": "An issue was discovered in Django. The `clickable` Current URL value displayed by the `AdminURLFieldWidget` displays the provided value without validating it as a safe URL. Thus, an unvalidated value stored in the database, or a value provided as a URL query parameter payload, could result in a clickable JavaScript link.",
      "cve": "Pipfile:Django:gemnasium:149e1ab4-7152-4fa8-a40a-9a50a31d6d2f",
      "severity": "Medium",
      "solution": "Upgrade to versions 1.11.21, 2.1.9, 2.2.2 or above.",
      "scanner": {
        "id": "gemnasium",
        "name": "Gemnasium"
      },
      "location": {
        "file": "Pipfile",
        "dependency": {
          "package": {
            "name": "Django"
          },
          "version": "1.11.3"
        }
      },
      "identifiers": [
        {
          "type": "gemnasium",
          "name": "Gemnasium-149e1ab4-7152-4fa8-a40a-9a50a31d6d2f",
          "value": "149e1ab4-7152-4fa8-a40a-9a50a31d6d2f",
          "url": "https://gitlab.com/gitlab-org/security-products/gemnasium-db/-/blob/v1.2.142/pypi/Django/CVE-2019-12308.yml"
        },
        {
          "type": "cve",
          "name": "CVE-2019-12308",
          "value": "CVE-2019-12308",
          "url": "https://cve.mitre.org/cgi-bin/cvename.cgi?name=CVE-2019-12308"
        }
      ],
      "links": [
        {
          "url": "https://docs.djangoproject.com/en/dev/releases/1.11.21/"
        },
        {
          "url": "https://docs.djangoproject.com/en/dev/releases/2.1.9/"
        },
        {
          "url": "https://docs.djangoproject.com/en/dev/releases/2.2.2/"
        },
        {
          "url": "https://docs.djangoproject.com/en/dev/releases/security/"
        },
        {
          "url": "https://github.com/django/django/commit/09186a13d975de6d049f8b3e05484f66b01ece62"
        },
        {
          "url": "https://github.com/django/django/commit/afddabf8428ddc89a332f7a78d0d21eaf2b5a673"
        },
        {
          "url": "https://github.com/django/django/commit/c238701859a52d584f349cce15d56c8e8137c52b"
        },
        {
          "url": "https://github.com/django/django/commit/deeba6d92006999fee9adfbd8be79bf0a59e8008"
        },
        {
          "url": "https://groups.google.com/forum/#!topic/django-announce/GEbHU7YoVz8"
        },
        {
          "url": "https://nvd.nist.gov/vuln/detail/CVE-2019-12308"
        },
        {
          "url": "https://www.djangoproject.com/weblog/2019/jun/03/security-releases/"
        }
      ]
    },
    {
      "id": "ab8c16433b78ed5475840eb1547cdda8ca5621f307ade319b49c6f213b2d022d",
      "category": "dependency_scanning",
      "name": "Incorrect Regular Expression",
      "message": "Incorrect Regular Expression in Django",
      "description": "If `django.utils.text.Truncator`'s `chars()` and `words()` methods were passed the `html=True` argument, they were extremely slow to evaluate certain inputs due to a catastrophic backtracking vulnerability in a regular expression. The `chars()` and words()` methods are used to implement the `truncatechars_html` and `truncatewords_html` template filters, which were thus vulnerable.",
      "cve": "Pipfile:Django:gemnasium:1f2c3ac1-b729-4ac9-8c64-1dcbff84250e",
      "severity": "Medium",
      "solution": "Upgrade to versions 1.8.19, 1.11.11, 2.0.3 or above.",
      "scanner": {
        "id": "gemnasium",
        "name": "Gemnasium"
      },
      "location": {
        "file": "Pipfile",
        "dependency": {
          "package": {
            "name": "Django"
          },
          "version": "1.11.3"
        }
      },
      "identifiers": [
        {
          "type": "gemnasium",
          "name": "Gemnasium-1f2c3ac1-b729-4ac9-8c64-1dcbff84250e",
          "value": "1f2c3ac1-b729-4ac9-8c64-1dcbff84250e",
          "url": "https://gitlab.com/gitlab-org/security-products/gemnasium-db/-/blob/v1.2.142/pypi/Django/CVE-2018-7537.yml"
        },
        {
          "type": "cve",
          "name": "CVE-2018-7537",
          "value": "CVE-2018-7537",
          "url": "https://cve.mitre.org/cgi-bin/cvename.cgi?name=CVE-2018-7537"
        }
      ],
      "links": [
        {
          "url": "http://www.securityfocus.com/bid/103357"
        },
        {
          "url": "https://nvd.nist.gov/vuln/detail/CVE-2018-7537"
        },
        {
          "url": "https://www.djangoproject.com/weblog/2018/mar/06/security-releases/"
        }
      ]
    },
    {
      "id": "f2921390af5c081ca050eecfc426545569d57e753df2f4890fb2277b48cd3b65",
      "category": "dependency_scanning",
      "name": "URL Redirection to Untrusted Site (Open Redirect)",
      "message": "URL Redirection to Untrusted Site (Open Redirect) in Django",
      "description": "`django.middleware.common.CommonMiddleware` has an Open Redirect.",
      "cve": "Pipfile:Django:gemnasium:25669e1a-dcaa-4722-adfc-0f089945c95c",
      "severity": "Medium",
      "solution": "Upgrade to versions 1.11.15, 2.0.8 or above.",
      "scanner": {
        "id": "gemnasium",
        "name": "Gemnasium"
      },
      "location": {
        "file": "Pipfile",
        "dependency": {
          "package": {
            "name": "Django"
          },
          "version": "1.11.3"
        }
      },
      "identifiers": [
        {
          "type": "gemnasium",
          "name": "Gemnasium-25669e1a-dcaa-4722-adfc-0f089945c95c",
          "value": "25669e1a-dcaa-4722-adfc-0f089945c95c",
          "url": "https://gitlab.com/gitlab-org/security-products/gemnasium-db/-/blob/v1.2.142/pypi/Django/CVE-2018-14574.yml"
        },
        {
          "type": "cve",
          "name": "CVE-2018-14574",
          "value": "CVE-2018-14574",
          "url": "https://cve.mitre.org/cgi-bin/cvename.cgi?name=CVE-2018-14574"
        }
      ],
      "links": [
        {
          "url": "http://www.securityfocus.com/bid/104970"
        },
        {
          "url": "http://www.securitytracker.com/id/1041403"
        },
        {
          "url": "https://nvd.nist.gov/vuln/detail/CVE-2018-14574"
        },
        {
          "url": "https://www.djangoproject.com/weblog/2018/aug/01/security-releases/"
        }
      ]
    },
    {
      "id": "5315e6c49e6eee0b4b6ed3ce6316cd736a7af449be796432ba1b19f1d4444624",
      "category": "dependency_scanning",
      "name": "Improper Input Validation",
      "message": "Improper Input Validation in Django",
      "description": "An HTTP request is not redirected to HTTPS when the `SECURE_PROXY_SSL_HEADER` and `SECURE_SSL_REDIRECT` settings are used, and the proxy connects to Django via HTTPS. In other words, `django.http.HttpRequest.scheme` has incorrect behavior when a client uses HTTP.",
      "cve": "Pipfile:Django:gemnasium:42367e41-2c04-4f04-bdaa-ea72d0957ef8",
      "severity": "Medium",
      "solution": "Upgrade to versions 1.11.22, 2.1.10, 2.2.3 or above.",
      "scanner": {
        "id": "gemnasium",
        "name": "Gemnasium"
      },
      "location": {
        "file": "Pipfile",
        "dependency": {
          "package": {
            "name": "Django"
          },
          "version": "1.11.3"
        }
      },
      "identifiers": [
        {
          "type": "gemnasium",
          "name": "Gemnasium-42367e41-2c04-4f04-bdaa-ea72d0957ef8",
          "value": "42367e41-2c04-4f04-bdaa-ea72d0957ef8",
          "url": "https://gitlab.com/gitlab-org/security-products/gemnasium-db/-/blob/v1.2.142/pypi/Django/CVE-2019-12781.yml"
        },
        {
          "type": "cve",
          "name": "CVE-2019-12781",
          "value": "CVE-2019-12781",
          "url": "https://cve.mitre.org/cgi-bin/cvename.cgi?name=CVE-2019-12781"
        }
      ],
      "links": [
        {
          "url": "https://docs.djangoproject.com/en/dev/releases/security/"
        },
        {
          "url": "https://nvd.nist.gov/vuln/detail/CVE-2019-12781"
        },
        {
          "url": "https://www.djangoproject.com/weblog/2019/jul/01/security-releases/"
        }
      ]
    },
    {
      "id": "2f84f9a6d2a5a310bec058f73cf7d273871dd490e9fba7f5dc6fde0dbefddf9f",
      "category": "dependency_scanning",
      "name": "Incorrect Regular Expression",
      "message": "Incorrect Regular Expression in Django",
      "description": "An issue was discovered in Django. The `django.utils.html.urlize()` function was extremely slow to evaluate certain inputs due to catastrophic backtracking vulnerabilities in two regular expressions. The `urlize()` function is used to implement the urlize and urlizetrunc template filters, which were thus vulnerable.",
      "cve": "Pipfile:Django:gemnasium:483f1247-a680-44c4-b609-c7a3ac65bd82",
      "severity": "Medium",
      "solution": "Upgrade to versions 1.8.19, 1.11.11, 2.0.3 or above.",
      "scanner": {
        "id": "gemnasium",
        "name": "Gemnasium"
      },
      "location": {
        "file": "Pipfile",
        "dependency": {
          "package": {
            "name": "Django"
          },
          "version": "1.11.3"
        }
      },
      "identifiers": [
        {
          "type": "gemnasium",
          "name": "Gemnasium-483f1247-a680-44c4-b609-c7a3ac65bd82",
          "value": "483f1247-a680-44c4-b609-c7a3ac65bd82",
          "url": "https://gitlab.com/gitlab-org/security-products/gemnasium-db/-/blob/v1.2.142/pypi/Django/CVE-2018-7536.yml"
        },
        {
          "type": "cve",
          "name": "CVE-2018-7536",
          "value": "CVE-2018-7536",
          "url": "https://cve.mitre.org/cgi-bin/cvename.cgi?name=CVE-2018-7536"
        }
      ],
      "links": [
        {
          "url": "http://www.securityfocus.com/bid/103361"
        },
        {
          "url": "https://nvd.nist.gov/vuln/detail/CVE-2018-7536"
        },
        {
          "url": "https://www.djangoproject.com/weblog/2018/mar/06/security-releases/"
        }
      ]
    },
    {
      "id": "da78fe068b595caab92174235ebea56d61ec1a7aa821c43cc528b851506914ce",
      "category": "dependency_scanning",
      "name": "Possible XSS in traceback section of technical 500 debug page",
      "message": "Possible XSS in traceback section of technical 500 debug page in Django",
      "description": "HTML auto-escaping was disabled in a portion of the template for the technical debug page. Given the right circumstances, this allowed a cross-site scripting attack. This vulnerability shouldn't affect most production sites since you shouldn't run with `DEBUG = True` (which makes this page accessible) in your production settings.",
      "cve": "Pipfile:Django:gemnasium:6162a015-8635-4a15-8d7c-dc9321db366f",
      "severity": "Medium",
      "solution": "Upgrade to versions 1.10.8, 1.11.5 or above.",
      "scanner": {
        "id": "gemnasium",
        "name": "Gemnasium"
      },
      "location": {
        "file": "Pipfile",
        "dependency": {
          "package": {
            "name": "Django"
          },
          "version": "1.11.3"
        }
      },
      "identifiers": [
        {
          "type": "gemnasium",
          "name": "Gemnasium-6162a015-8635-4a15-8d7c-dc9321db366f",
          "value": "6162a015-8635-4a15-8d7c-dc9321db366f",
          "url": "https://gitlab.com/gitlab-org/security-products/gemnasium-db/-/blob/v1.2.142/pypi/Django/CVE-2017-12794.yml"
        },
        {
          "type": "cve",
          "name": "CVE-2017-12794",
          "value": "CVE-2017-12794",
          "url": "https://cve.mitre.org/cgi-bin/cvename.cgi?name=CVE-2017-12794"
        }
      ],
      "links": [
        {
          "url": "http://www.securityfocus.com/bid/100643"
        },
        {
          "url": "http://www.securitytracker.com/id/1039264"
        },
        {
          "url": "https://nvd.nist.gov/vuln/detail/CVE-2017-12794"
        },
        {
          "url": "https://www.djangoproject.com/weblog/2017/sep/05/security-releases/"
        }
      ]
    },
    {
      "id": "24967f87ef990e61c94aaaf86064c8e73ddd7579cfb825251bbab632a314c17b",
      "category": "dependency_scanning",
      "name": "Content Spoofing",
      "message": "Content Spoofing in Django",
      "description": "Improper Neutralization of Special Elements in Output Used by a Downstream Component issue exists in `django.views.defaults.page_not_found()`, leading to content spoofing (in a 404 error page) if a user fails to recognize that a crafted URL has malicious content.",
      "cve": "Pipfile:Django:gemnasium:94f5e552-ad49-49c7-bd9f-8857bba2354b",
      "severity": "Medium",
      "solution": "Upgrade to versions 1.11.18, 2.0.10, 2.1.5 or above.",
      "scanner": {
        "id": "gemnasium",
        "name": "Gemnasium"
      },
      "location": {
        "file": "Pipfile",
        "dependency": {
          "package": {
            "name": "Django"
          },
          "version": "1.11.3"
        }
      },
      "identifiers": [
        {
          "type": "gemnasium",
          "name": "Gemnasium-94f5e552-ad49-49c7-bd9f-8857bba2354b",
          "value": "94f5e552-ad49-49c7-bd9f-8857bba2354b",
          "url": "https://gitlab.com/gitlab-org/security-products/gemnasium-db/-/blob/v1.2.142/pypi/Django/CVE-2019-3498.yml"
        },
        {
          "type": "cve",
          "name": "CVE-2019-3498",
          "value": "CVE-2019-3498",
          "url": "https://cve.mitre.org/cgi-bin/cvename.cgi?name=CVE-2019-3498"
        }
      ],
      "links": [
        {
          "url": "http://www.securityfocus.com/bid/106453"
        },
        {
          "url": "https://cve.mitre.org/cgi-bin/cvename.cgi?name=CVE-2019-3498"
        },
        {
          "url": "https://cwe.mitre.org/data/definitions/148.html"
        },
        {
          "url": "https://docs.djangoproject.com/en/dev/releases/security/"
        },
        {
          "url": "https://groups.google.com/forum/#!topic/django-announce/VYU7xQQTEPQ"
        },
        {
          "url": "https://lists.debian.org/debian-lts-announce/2019/01/msg00005.html"
        },
        {
          "url": "https://lists.fedoraproject.org/archives/list/package-announce@lists.fedoraproject.org/message/HVXDOVCXLD74SHR2BENGCE2OOYYYWJHZ/"
        },
        {
          "url": "https://nvd.nist.gov/vuln/detail/CVE-2019-3498"
        },
        {
          "url": "https://usn.ubuntu.com/3851-1/"
        },
        {
          "url": "https://www.debian.org/security/2019/dsa-4363"
        },
        {
          "url": "https://www.djangoproject.com/weblog/2019/jan/04/security-releases/"
        }
      ]
    },
    {
      "id": "4b70250497ff25a70cf6e3096ff3481912cdf995809a5e5fcf0565bc4d892de9",
      "category": "dependency_scanning",
      "name": "Session fixation in resolve_redirects()",
      "message": "Session fixation in resolve_redirects() in requests",
      "description": "The `resolve_redirects()` function in `sessions.py` allows a remote, user-assisted attacker to conduct a session fixation attack. This flaw exists because the application, when establishing a new session, does not invalidate an existing session identifier and assign a new one. With a specially crafted request fixating the session identifier, a context-dependent attacker can ensure a user authenticates with the known session identifier, allowing the session to be subsequently hijacked.",
      "cve": "Pipfile:requests:gemnasium:d1c3b3de-3b82-4f45-97ce-7e97f96652e5",
      "severity": "Medium",
      "solution": "Upgrade to latest version.",
      "scanner": {
        "id": "gemnasium",
        "name": "Gemnasium"
      },
      "location": {
        "file": "Pipfile",
        "dependency": {
          "package": {
            "name": "requests"
          },
          "version": "2.5.3"
        }
      },
      "identifiers": [
        {
          "type": "gemnasium",
          "name": "Gemnasium-d1c3b3de-3b82-4f45-97ce-7e97f96652e5",
          "value": "d1c3b3de-3b82-4f45-97ce-7e97f96652e5",
          "url": "https://gitlab.com/gitlab-org/security-products/gemnasium-db/-/blob/v1.2.142/pypi/requests/CVE-2015-2296.yml"
        },
        {
          "type": "cve",
          "name": "CVE-2015-2296",
          "value": "CVE-2015-2296",
          "url": "https://cve.mitre.org/cgi-bin/cvename.cgi?name=CVE-2015-2296"
        }
      ],
      "links": [
        {
          "url": "http://osvdb.org/show/osvdb/119576"
        },
        {
          "url": "http://www.openwall.com/lists/oss-security/2015/03/14/4"
        },
        {
          "url": "https://github.com/kennethreitz/requests/commit/3bd8afbff29e50b38f889b2f688785a669b9aafc#diff-28e67177469c0d36b068d68d9f6043bf"
        },
        {
          "url": "https://github.com/kennethreitz/requests/commit/f7c85685a8e484715649c13bacae6adc7f5f3908#diff-28e67177469c0d36b068d68d9f6043bf"
        }
      ]
    }
  ],
  "remediations": [],
  "dependency_files": [
    {
      "path": "Pipfile",
      "package_manager": "pipenv",
      "dependencies": [
        {
          "package": {
            "name": "Django"
          },
          "version": "1.11.3"
        },
        {
          "package": {
            "name": "docutils"
          },
          "version": "0.13.1"
        },
        {
          "package": {
            "name": "pytz"
          },
          "version": "2021.3"
        },
        {
          "package": {
            "name": "requests"
          },
          "version": "2.5.3"
        }
      ]
    }
  ],
  "scan": {
    "scanner": {
      "id": "gemnasium-python",
      "name": "gemnasium-python",
      "url": "https://gitlab.com/gitlab-org/security-products/analyzers/gemnasium-python",
      "vendor": {
        "name": "GitLab"
      },
      "version": "2.15.0"
    },
    "type": "dependency_scanning",
    "start_time": "2020-09-09T05:22:45",
    "end_time": "2020-09-09T05:23:03",
    "status": "success"
  }
}
